-- Merging decision tree log ---
manifest
ADDED from /home/phind/WorkSpace/watereffect/watereffect/whater-master/app/src/main/AndroidManifest.xml:2:1-27:12
	package
		ADDED from /home/phind/WorkSpace/watereffect/watereffect/whater-master/app/src/main/AndroidManifest.xml:3:5-33
		INJECTED from /home/phind/WorkSpace/watereffect/watereffect/whater-master/app/src/main/AndroidManifest.xml
		INJECTED from /home/phind/WorkSpace/watereffect/watereffect/whater-master/app/src/main/AndroidManifest.xml
	android:versionName
		ADDED from /home/phind/WorkSpace/watereffect/watereffect/whater-master/app/src/main/AndroidManifest.xml:5:5-30
		INJECTED from /home/phind/WorkSpace/watereffect/watereffect/whater-master/app/src/main/AndroidManifest.xml
		INJECTED from /home/phind/WorkSpace/watereffect/watereffect/whater-master/app/src/main/AndroidManifest.xml
	android:versionCode
		ADDED from /home/phind/WorkSpace/watereffect/watereffect/whater-master/app/src/main/AndroidManifest.xml:4:5-28
		INJECTED from /home/phind/WorkSpace/watereffect/watereffect/whater-master/app/src/main/AndroidManifest.xml
		INJECTED from /home/phind/WorkSpace/watereffect/watereffect/whater-master/app/src/main/AndroidManifest.xml
	xmlns:android
		ADDED from /home/phind/WorkSpace/watereffect/watereffect/whater-master/app/src/main/AndroidManifest.xml:2:11-69
uses-sdk
ADDED from /home/phind/WorkSpace/watereffect/watereffect/whater-master/app/src/main/AndroidManifest.xml:7:5-43
	android:targetSdkVersion
		INJECTED from /home/phind/WorkSpace/watereffect/watereffect/whater-master/app/src/main/AndroidManifest.xml
		INJECTED from /home/phind/WorkSpace/watereffect/watereffect/whater-master/app/src/main/AndroidManifest.xml
	android:minSdkVersion
		ADDED from /home/phind/WorkSpace/watereffect/watereffect/whater-master/app/src/main/AndroidManifest.xml:7:15-40
		INJECTED from /home/phind/WorkSpace/watereffect/watereffect/whater-master/app/src/main/AndroidManifest.xml
		INJECTED from /home/phind/WorkSpace/watereffect/watereffect/whater-master/app/src/main/AndroidManifest.xml
application
ADDED from /home/phind/WorkSpace/watereffect/watereffect/whater-master/app/src/main/AndroidManifest.xml:9:5-25:19
	android:label
		ADDED from /home/phind/WorkSpace/watereffect/watereffect/whater-master/app/src/main/AndroidManifest.xml:11:9-41
	android:icon
		ADDED from /home/phind/WorkSpace/watereffect/watereffect/whater-master/app/src/main/AndroidManifest.xml:10:9-45
activity#com.wheelly.whater.Main
ADDED from /home/phind/WorkSpace/watereffect/watereffect/whater-master/app/src/main/AndroidManifest.xml:12:9-22:20
	android:label
		ADDED from /home/phind/WorkSpace/watereffect/watereffect/whater-master/app/src/main/AndroidManifest.xml:14:13-45
	android:name
		ADDED from /home/phind/WorkSpace/watereffect/watereffect/whater-master/app/src/main/AndroidManifest.xml:13:13-33
intent-filter#android.intent.action.MAIN+android.intent.category.LAUNCHER
ADDED from /home/phind/WorkSpace/watereffect/watereffect/whater-master/app/src/main/AndroidManifest.xml:15:25-19:29
action#android.intent.action.MAIN
ADDED from /home/phind/WorkSpace/watereffect/watereffect/whater-master/app/src/main/AndroidManifest.xml:16:17-69
	android:name
		ADDED from /home/phind/WorkSpace/watereffect/watereffect/whater-master/app/src/main/AndroidManifest.xml:16:25-66
category#android.intent.category.LAUNCHER
ADDED from /home/phind/WorkSpace/watereffect/watereffect/whater-master/app/src/main/AndroidManifest.xml:18:17-77
	android:name
		ADDED from /home/phind/WorkSpace/watereffect/watereffect/whater-master/app/src/main/AndroidManifest.xml:18:27-74
activity#com.wheelly.whater.SurfaceViewActivity
ADDED from /home/phind/WorkSpace/watereffect/watereffect/whater-master/app/src/main/AndroidManifest.xml:23:9-24:20
	android:name
		ADDED from /home/phind/WorkSpace/watereffect/watereffect/whater-master/app/src/main/AndroidManifest.xml:23:19-54
