{
  "project_info": {
    "project_number": "634391337364",
    "project_id": "orca-photo-water-effect"
  },
  "client": [
    {
      "client_info": {
        "mobilesdk_app_id": "1:634391337364:android:fc5ba585e4469e7e",
        "android_client_info": {
          "package_name": "we.orca.oni.orcaphotowatereffect"
        }
      },
      "oauth_client": [],
      "api_key": [
        {
          "current_key": "AIzaSyC845Ia5PZd_OQbokaEQNkExSZutLZ5iNA"
        }
      ],
      "services": {
        "analytics_service": {
          "status": 2,
          "analytics_property": {
            "tracking_id": "UA-78813764-5"
          }
        },
        "appinvite_service": {
          "status": 1,
          "other_platform_oauth_client": []
        },
        "ads_service": {
          "status": 1
        }
      }
    }
  ],
  "configuration_version": "1"
}